{
    "version": "2",
    "rpc_enable": "true",
    "rpc": {
        "address": "::ffff:0.0.0.0",
        "port": "55000",
        "enable_control": "true",
        "frontier_request_limit": "16384",
        "chain_request_limit": "16384"
    },
    "node": {
        "version": "12",
        "peering_port": "54000",
        "bootstrap_fraction_numerator": "1",
        "receive_minimum": "100000000000000000000000000000",
        "logging": {
            "version": "3",
            "ledger": "false",
            "ledger_duplicate": "false",
            "vote": "false",
            "network": "true",
            "network_message": "false",
            "network_publish": "false",
            "network_packet": "false",
            "network_keepalive": "false",
            "network_node_id_handshake": "false",
            "node_lifetime_tracing": "false",
            "insufficient_work": "true",
            "log_rpc": "true",
            "bulk_pull": "false",
            "work_generation_time": "true",
            "log_to_cerr": "false",
            "max_size": "16777216",
            "rotation_size": "4194304",
            "flush": "false"
        },
        "work_peers": "",
        "preconfigured_peers": [
            "peers-beta.culurjonis.cc"
        ],
        "preconfigured_representatives": [
            "ban_3betaz86ypbygpqbookmzpnmd5jhh4efmd8arr9a3n4bdmj1zgnzad7xpmfp",
            "ban_1beta1ayfkpj1tfbhi3e9ihkocjkqi6ms5e4xrbmbybqnkza1e5jrake8wai",
            "ban_1beta3kp4j9tn7pko3apyyzbrx789jpc98ep3ufqazanbcxiyyoxmxhjtbfn",
            "ban_1beta4nkzb3g6b1a1qhae89earmz3gk3kfrp3f8hyztm8qyjkeyz9kajfutq",
            "ban_1beta5zm6rq4ghp6c9n99j8fz3am8e44dewae5ea7addsjtfo8umsafmr1r7"
        ],
        "online_weight_minimum": "60000000000000000000000000000000000000",
        "online_weight_quorum": "50",
        "password_fanout": "1024",
        "io_threads": "4",
        "work_threads": "4",
        "enable_voting": "false",
        "bootstrap_connections": "16",
        "bootstrap_connections_max": "64",
        "callback_address": "",
        "callback_port": "0",
        "callback_target": "",
        "lmdb_max_dbs": "128",
        "state_block_parse_canary": "1F76506FE8606E8BBA8C732A32F6C8DA78E514182C8BED62D1D988F3159BEAA2",
        "state_block_generate_canary": "1F76506FE8606E8BBA8C732A32F6C8DA78E514182C8BED62D1D988F3159BEAA2"
    },
    "opencl_enable": "false",
    "opencl": {
        "platform": "0",
        "device": "0",
        "threads": "1048576"
    }
}
